Chapter 7 Football simulation | Data Science in Julia for Hackers
…
matches = []
for match in england_league
    push!(matches, split(match["label"], ","))
end

for match in matches
    home, away = split(match[1], " - ")
    score_home, score_away = split(match[2], " - ")
    push!(matches_df,[home, away, parse(Int,score_home), parse(Int,score_away)])
end

matches_df

## 380×4 DataFrame
##  Row │ home                    away                    score_home  score_away
##      │ Any                     Any                     Any         Any
## ─────┼────────────────────────────────────────────────────────────────────────
##    1 │ Burnley                 AFC Bournemouth         1           2
##    2 │ Crystal Palace          West Bromwich Albion    2           0
##    3 │ Huddersfield Town       Arsenal                 0           1
##    4 │ Liverpool               Brighton & Hove Albion  4           0
##    5 │ Manchester United       Watford                 1           0
##    6 │ Newcastle United        Chelsea                 3           0
##    7 │ Southampton             Manchester City         0           1
##    8 │ Swansea City            Stoke City              1           2
##   ⋮  │           ⋮                       ⋮                 ⋮           ⋮
##  374 │ Chelsea                 Burnley                 2           3
##  375 │ Crystal Palace          Huddersfield Town       0           3
##  376 │ Everton                 Stoke City              1           0
##  377 │ Southampton             Swansea City            0           0
##  378 │ West Bromwich Albion    AFC Bournemouth         1           0
##  379 │ Watford                 Liverpool               3           3
##  380 │ Arsenal                 Leicester City          4           3
##                                                               365 rows omitted
…
