Chapter 2 Meeting Julia | Data Science in Julia for Hackers
…
begin
    using CSV
    
    iris_df = CSV.File("./02_julia_intro/data/Iris.csv") |> DataFrame
end

## 150×6 DataFrame
##  Row │ Id     SepalLengthCm  SepalWidthCm  PetalLengthCm  PetalWidthCm  Specie ⋯
##      │ Int64  Float64        Float64       Float64        Float64       String ⋯
## ─────┼──────────────────────────────────────────────────────────────────────────
##    1 │     1            5.1           3.5            1.4           0.2  Iris-s ⋯
##    2 │     2            4.9           3.0            1.4           0.2  Iris-s
##    3 │     3            4.7           3.2            1.3           0.2  Iris-s
##    4 │     4            4.6           3.1            1.5           0.2  Iris-s
##    5 │     5            5.0           3.6            1.4           0.2  Iris-s ⋯
##    6 │     6            5.4           3.9            1.7           0.4  Iris-s
##    7 │     7            4.6           3.4            1.4           0.3  Iris-s
##    8 │     8            5.0           3.4            1.5           0.2  Iris-s
##   ⋮  │   ⋮          ⋮             ⋮              ⋮             ⋮               ⋱
##  144 │   144            6.8           3.2            5.9           2.3  Iris-v ⋯
##  145 │   145            6.7           3.3            5.7           2.5  Iris-v
##  146 │   146            6.7           3.0            5.2           2.3  Iris-v
##  147 │   147            6.3           2.5            5.0           1.9  Iris-v
##  148 │   148            6.5           3.0            5.2           2.0  Iris-v ⋯
##  149 │   149            6.2           3.4            5.4           2.3  Iris-v
##  150 │   150            5.9           3.0            5.1           1.8  Iris-v
##                                                    1 column and 135 rows omitted
…
