Chapter 4 Spam filter | Data Science in Julia for Hackers
…
The .csv file contains 5,172 rows, one row for each email. There are
3,002 columns. The first column indicates Email name. The name has
been set with numbers and not recipients’ name to protect privacy. The
last column has the labels for prediction: for spam,
for not spam. The remaining 3,000 columns are the 3,000
most common words in all the emails, after excluding the
non-alphabetical characters/words. For each row, the count of each
word(column) in that email(row) is stored in the respective cells.

Let’s take a look at the data. The following code snippet outputs a view
of the first and last rows of the dataset.

raw_df = CSV.File("./04_naive_bayes/data/emails.csv") |> DataFrame 

## 5172×3002 DataFrame
##   Row │ Email No.   the    to     ect    and    for    of     a      you    ho ⋯
##       │ String15    Int64  Int64  Int64  Int64  Int64  Int64  Int64  Int64  In ⋯
## ──────┼─────────────────────────────────────────────────────────────────────────
##     1 │ Email 1         0      0      1      0      0      0      2      0     ⋯
##     2 │ Email 2         8     13     24      6      6      2    102      1
##     3 │ Email 3         0      0      1      0      0      0      8      0
##     4 │ Email 4         0      5     22      0      5      1     51      2
##     5 │ Email 5         7      6     17      1      5      2     57      0     ⋯
##     6 │ Email 6         4      5      1      4      2      3     45      1
##     7 │ Email 7         5      3      1      3      2      1     37      0
##     8 │ Email 8         0      2      2      3      1      2     21      6
##   ⋮   │     ⋮         ⋮      ⋮      ⋮      ⋮      ⋮      ⋮      ⋮      ⋮       ⋱
##  5166 │ Email 5166      1      0      1      0      3      1     12      1     ⋯
##  5167 │ Email 5167      1      0      1      1      0      0      4      0
##  5168 │ Email 5168      2      2      2      3      0      0     32      0
##  5169 │ Email 5169     35     27     11      2      6      5    151      4
##  5170 │ Email 5170      0      0      1      1      0      0     11      0     ⋯
##  5171 │ Email 5171      2      7      1      0      2      1     28      2
##  5172 │ Email 5172     22     24      5      1      6      5    148      8
##                                               2993 columns and 5157 rows omitted
…
